<?xml version="1.0" encoding="utf-8"?>
<!-- Generator: Adobe Illustrator 16.0.0, SVG Export Plug-In . SVG Version: 6.00 Build 0)  -->
<!DOCTYPE svg PUBLIC "-//W3C//DTD SVG 1.1//EN" "http://www.w3.org/Graphics/SVG/1.1/DTD/svg11.dtd">
<svg version="1.1" id="Layer_1" xmlns="http://www.w3.org/2000/svg" xmlns:xlink="http://www.w3.org/1999/xlink" x="0px" y="0px"
	 width="31px" height="31px" viewBox="0 0 31 31" enable-background="new 0 0 31 31" xml:space="preserve">
<title>running-person</title>
<desc>Created with Sketch.</desc>
<g id="Page-1">
	<g id="NestCam---Settings---Event-Types" transform="translate(-661.000000, -510.000000)">
		<g id="Group-6" transform="translate(640.000000, 373.000000)">
			<g id="Group-3" transform="translate(21.000000, 120.000000)">
				
					<g id="running-person" transform="translate(15.500000, 32.500000) scale(-1, 1) translate(-15.500000, -32.500000) translate(0.000000, 17.000000)">
					<g id="Capa_1">
						<g id="Group">
							<circle id="Oval" fill="#FFFFFF" cx="10.148" cy="3.053" r="3.053"/>
							<path id="Shape" fill="#FFFFFF" d="M27.438,19.201c-3.201,1.871-5.121-0.875-6.567-3.519
								c-0.063-0.255-0.156-0.513-0.29-0.774c-1.12-2.177-2.288-4.333-3.511-6.456c2.388-0.762,4.572-0.066,6.289,2.339
								c1.396,1.957,4.663,0.081,3.25-1.899c-3.324-4.655-8.28-5.81-13.241-2.864c-0.206,0.123-0.372,0.265-0.505,0.421
								c-0.075,0.029-0.15,0.062-0.224,0.096c-0.202,0.041-0.409,0.119-0.619,0.243C8.936,8.62,6.07,8.272,3.93,5.274
								c-1.398-1.957-4.664-0.08-3.25,1.899c2.73,3.825,6.564,5.281,10.6,4.045c1.266,2.174,2.467,4.387,3.622,6.624
								c-1.706,0.872-3.286,1.957-4.755,3.236c-0.064,0.055-0.12,0.112-0.174,0.17c-0.319,0.164-0.602,0.441-0.801,0.852
								c-0.986,2.04-1.975,4.08-2.961,6.12C5.15,30.411,8.562,32,9.617,29.818c0.938-1.938,1.878-3.879,2.816-5.816
								c0.127-0.071,0.253-0.156,0.374-0.264c1.704-1.482,3.654-2.684,5.792-3.429c0.105-0.036,0.201-0.08,0.292-0.129
								c2.616,3.319,6.266,5.148,10.637,2.595C31.83,21.43,29.747,17.852,27.438,19.201z"/>
						</g>
					</g>
				</g>
			</g>
		</g>
	</g>
</g>
</svg>
