<?xml version="1.0" encoding="utf-8"?>
<!-- Generator: Adobe Illustrator 16.0.0, SVG Export Plug-In . SVG Version: 6.00 Build 0)  -->
<!DOCTYPE svg PUBLIC "-//W3C//DTD SVG 1.1//EN" "http://www.w3.org/Graphics/SVG/1.1/DTD/svg11.dtd">
<svg version="1.1" id="Layer_1" xmlns="http://www.w3.org/2000/svg" xmlns:xlink="http://www.w3.org/1999/xlink" x="0px" y="0px"
	 width="612px" height="792px" viewBox="0 0 612 792" enable-background="new 0 0 612 792" xml:space="preserve">
<g id="Layer_2">
	<g>
		<path fill="#FFFFFF" d="M491,635.5c-5.522,0-10-4.478-10-10v-287H131v287c0,5.522-4.477,10-10,10H89c-5.523,0-10-4.478-10-10v-329
			c0-3.571,1.904-6.871,4.996-8.658l218-126c1.548-0.895,3.276-1.342,5.004-1.342c1.741,0,3.482,0.454,5.039,1.362l216,126
			c3.072,1.792,4.961,5.081,4.961,8.638v329c0,5.522-4.478,10-10,10H491z"/>
		<path fill="#CC3F44" d="M307,170.5l216,126v329h-32v-297H121v297H89v-329L307,170.5 M307,150.5c-3.456,0-6.912,0.895-10.008,2.684
			l-218,126C72.809,282.758,69,289.358,69,296.5v329c0,11.046,8.954,20,20,20h32c11.046,0,20-8.954,20-20v-277h330v277
			c0,11.046,8.954,20,20,20h32c11.046,0,20-8.954,20-20v-329c0-7.113-3.778-13.691-9.923-17.275l-216-126
			C313.965,151.409,310.482,150.5,307,150.5L307,150.5z"/>
	</g>
	
		<line fill="none" stroke="#CC3F44" stroke-width="10" stroke-linecap="round" stroke-linejoin="round" x1="155.254" y1="367.5" x2="456.746" y2="367.5"/>
	
		<line fill="none" stroke="#CC3F44" stroke-width="10" stroke-linecap="round" stroke-linejoin="round" x1="155.254" y1="400" x2="456.746" y2="400"/>
	
		<line fill="none" stroke="#CC3F44" stroke-width="10" stroke-linecap="round" stroke-linejoin="round" x1="155.254" y1="435.5" x2="456.746" y2="435.5"/>
	
		<line fill="none" stroke="#CC3F44" stroke-width="16" stroke-linecap="round" stroke-linejoin="round" x1="136" y1="467" x2="476" y2="467"/>
	<g id="Layer_3">
		
			<line fill="none" stroke="#CC3F44" stroke-width="10" stroke-linecap="square" stroke-miterlimit="10" x1="212.333" y1="473.666" x2="176.333" y2="497.333"/>
		
			<line fill="none" stroke="#CC3F44" stroke-width="10" stroke-linecap="square" stroke-miterlimit="10" x1="174.667" y1="500.666" x2="174.667" y2="542.667"/>
		
			<line fill="none" stroke="#CC3F44" stroke-width="10" stroke-linecap="square" stroke-miterlimit="10" x1="174.667" y1="500.666" x2="438" y2="500.666"/>
		
			<line fill="none" stroke="#CC3F44" stroke-width="10" stroke-linecap="square" stroke-miterlimit="10" x1="438" y1="500.666" x2="438" y2="546.667"/>
		
			<line fill="none" stroke="#CC3F44" stroke-width="10" stroke-linecap="square" stroke-miterlimit="10" x1="371.334" y1="504" x2="371.334" y2="546.667"/>
		
			<line fill="none" stroke="#CC3F44" stroke-width="10" stroke-linecap="square" stroke-miterlimit="10" x1="239.333" y1="504" x2="239.333" y2="546.667"/>
		
			<line fill="none" stroke="#CC3F44" stroke-width="10" stroke-linecap="square" stroke-miterlimit="10" x1="397.334" y1="472.999" x2="436.334" y2="497.333"/>
	</g>
	<g id="Layer_4">
		
			<line fill="none" stroke="#CC3F44" stroke-width="10" stroke-linecap="round" stroke-linejoin="round" stroke-miterlimit="10" x1="267.667" y1="518.333" x2="267.667" y2="529.333"/>
		
			<line fill="none" stroke="#CC3F44" stroke-width="10" stroke-linecap="round" stroke-linejoin="round" stroke-miterlimit="10" x1="293.75" y1="518.333" x2="293.75" y2="529.333"/>
		
			<line fill="none" stroke="#CC3F44" stroke-width="10" stroke-linecap="round" stroke-linejoin="round" stroke-miterlimit="10" x1="319.125" y1="518.333" x2="319.125" y2="529.333"/>
		
			<line fill="none" stroke="#CC3F44" stroke-width="10" stroke-linecap="round" stroke-linejoin="round" stroke-miterlimit="10" x1="344.875" y1="518.333" x2="344.875" y2="529.333"/>
	</g>
	<g id="Layer_5">
		
			<path fill="#CC3F44" stroke="#CC3F44" stroke-width="10" stroke-linecap="round" stroke-linejoin="round" stroke-miterlimit="10" d="
			M222.667,588.334v9.667c0,6.627-5.373,12-12,12h-16.333c-6.627,0-12-5.373-12-12v-9.667"/>
		
			<path fill="#CC3F44" stroke="#CC3F44" stroke-width="10" stroke-linecap="round" stroke-linejoin="round" stroke-miterlimit="10" d="
			M431,588.334v9.667c0,6.627-5.373,12-12,12h-16.333c-6.628,0-12-5.373-12-12v-9.667"/>
		<path fill="none" stroke="#CC3F44" stroke-width="10" stroke-linecap="round" stroke-linejoin="round" stroke-miterlimit="10" d="
			M464.667,571.667c0,6.627-5.373,12-12,12h-292c-6.627,0-12-5.373-12-12v-13.333c0-6.627,5.373-12,12-12h292
			c6.627,0,12,5.373,12,12V571.667z"/>
	</g>
</g>
<g id="Layer_1_1_" display="none">
	
		<image display="inline" overflow="visible" enable-background="new    " width="500" height="500" xlink:href="CA9106F6.png"  transform="matrix(0.9999 0 0 0.9999 55.9995 146)">
	</image>
</g>
</svg>
