<?xml version="1.0" encoding="utf-8"?>
<!-- Generator: Adobe Illustrator 16.0.0, SVG Export Plug-In . SVG Version: 6.00 Build 0)  -->
<!DOCTYPE svg PUBLIC "-//W3C//DTD SVG 1.1//EN" "http://www.w3.org/Graphics/SVG/1.1/DTD/svg11.dtd">
<svg version="1.1" id="Layer_1" xmlns="http://www.w3.org/2000/svg" xmlns:xlink="http://www.w3.org/1999/xlink" x="0px" y="0px"
	 width="612px" height="792px" viewBox="0 0 612 792" enable-background="new 0 0 612 792" xml:space="preserve">
<path fill="#6C6C6C" d="M29.925,445.956c-9.001-96.924,32.387-184.718,101.056-240.488c26.763-21.766,66.782-3.133,66.782,31.265
	c0,12.652-6,24.247-15.758,32.147c-48.656,39.635-77.916,102.177-70.793,171.218c9.261,89.909,81.302,162.701,171.084,172.696
	c117.193,13.123,216.719-78.651,216.719-193.222c0-60.776-28.123-115.173-72.034-150.827c-9.758-7.878-15.632-19.508-15.632-32.013
	c0-34.006,39.41-53.275,65.907-32.015c62.783,50.669,103.045,128.093,103.045,214.868c0,158.717-134.813,286.66-296.006,275.016
	C150.993,685.207,42.318,579.047,29.925,445.956L29.925,445.956z M304.433,82.661c-22.509,0-40.644,18.262-40.644,40.644V310.54
	c0,22.497,18.262,40.628,40.644,40.628c22.39,0,40.658-18.247,40.658-40.628V123.305C345.091,100.923,326.95,82.661,304.433,82.661
	L304.433,82.661z"/>
</svg>
